Introduction to Data Science - Session 7
…
library(nycflights13)

Joining data frames

Start with a left-join example:

flights |> 
  select(year,month,day,dep_time,carrier,flight,origin,dest) |> 
  left_join(airlines, by = "carrier")

# A tibble: 336,776 × 9
    year month   day dep_time carrier flight origin dest  name                  
   <int> <int> <int>    <int> <chr>    <int> <chr>  <chr> <chr>                 
 1  2013     1     1      517 UA        1545 EWR    IAH   United Air Lines Inc. 
 2  2013     1     1      533 UA        1714 LGA    IAH   United Air Lines Inc. 
 3  2013     1     1      542 AA        1141 JFK    MIA   American Airlines Inc.
 4  2013     1     1      544 B6         725 JFK    BQN   JetBlue Airways       
 5  2013     1     1      554 DL         461 LGA    ATL   Delta Air Lines Inc.  
 6  2013     1     1      554 UA        1696 EWR    ORD   United Air Lines Inc. 
 7  2013     1     1      555 B6         507 EWR    FLL   JetBlue Airways       
 8  2013     1     1      557 EV        5708 LGA    IAD   ExpressJet Airlines I…
 9  2013     1     1      557 B6          79 JFK    MCO   JetBlue Airways       
10  2013     1     1      558 AA         301 LGA    ORD   American Airlines Inc.
# ℹ 336,766 more rows

Inner join to only look at Hawaiian and Alaskan airlines.

airlines2 <- airlines |> 
  filter(carrier %in% c("HA","AS"))

flights |> 
  select(year,month,day,dep_time,carrier,flight,origin,dest) |> 
  inner_join(airlines2, by = "carrier")

# A tibble: 1,056 × 9
    year month   day dep_time carrier flight origin dest  name                  
   <int> <int> <int>    <int> <chr>    <int> <chr>  <chr> <chr>                 
 1  2013     1     1      724 AS          11 EWR    SEA   Alaska Airlines Inc.  
 2  2013     1     1      857 HA          51 JFK    HNL   Hawaiian Airlines Inc.
 3  2013     1     1     1808 AS           7 EWR    SEA   Alaska Airlines Inc.  
 4  2013     1     2      722 AS          11 EWR    SEA   Alaska Airlines Inc.  
 5  2013     1     2      909 HA          51 JFK    HNL   Hawaiian Airlines Inc.
 6  2013     1     2     1818 AS           7 EWR    SEA   Alaska Airlines Inc.  
 7  2013     1     3      724 AS          11 EWR    SEA   Alaska Airlines Inc.  
 8  2013     1     3      914 HA          51 JFK    HNL   Hawaiian Airlines Inc.
 9  2013     1     3     1817 AS           7 EWR    SEA   Alaska Airlines Inc.  
10  2013     1     4      725 AS          11 EWR    SEA   Alaska Airlines Inc.  
# ℹ 1,046 more rows

Using left join on our airlines2 data frame would produce missing values

flights |> 
  select(year,month,day,dep_time,carrier,flight,origin,dest) |> 
  left_join(airlines2, by = "carrier")

# A tibble: 336,776 × 9
    year month   day dep_time carrier flight origin dest  name 
   <int> <int> <int>    <int> <chr>    <int> <chr>  <chr> <chr>
 1  2013     1     1      517 UA        1545 EWR    IAH   <NA> 
 2  2013     1     1      533 UA        1714 LGA    IAH   <NA> 
 3  2013     1     1      542 AA        1141 JFK    MIA   <NA> 
 4  2013     1     1      544 B6         725 JFK    BQN   <NA> 
 5  2013     1     1      554 DL         461 LGA    ATL   <NA> 
 6  2013     1     1      554 UA        1696 EWR    ORD   <NA> 
 7  2013     1     1      555 B6         507 EWR    FLL   <NA> 
 8  2013     1     1      557 EV        5708 LGA    IAD   <NA> 
 9  2013     1     1      557 B6          79 JFK    MCO   <NA> 
10  2013     1     1      558 AA         301 LGA    ORD   <NA> 
# ℹ 336,766 more rows

Joining data frames with non-overlapping key names

weather |> 
  select(origin:humid) |> 
  left_join(airports, by = c("origin" = "faa"))

# A tibble: 26,115 × 15
   origin  year month   day  hour  temp  dewp humid name         lat   lon   alt
   <chr>  <int> <int> <int> <int> <dbl> <dbl> <dbl> <chr>      <dbl> <dbl> <dbl>
 1 EWR     2013     1     1     1  39.0  26.1  59.4 Newark Li…  40.7 -74.2    18
 2 EWR     2013     1     1     2  39.0  27.0  61.6 Newark Li…  40.7 -74.2    18
 3 EWR     2013     1     1     3  39.0  28.0  64.4 Newark Li…  40.7 -74.2    18
 4 EWR     2013     1     1     4  39.9  28.0  62.2 Newark Li…  40.7 -74.2    18
 5 EWR     2013     1     1     5  39.0  28.0  64.4 Newark Li…  40.7 -74.2    18
 6 EWR     2013     1     1     6  37.9  28.0  67.2 Newark Li…  40.7 -74.2    18
 7 EWR     2013     1     1     7  39.0  28.0  64.4 Newark Li…  40.7 -74.2    18
 8 EWR     2013     1     1     8  39.9  28.0  62.2 Newark Li…  40.7 -74.2    18
 9 EWR     2013     1     1     9  39.9  28.0  62.2 Newark Li…  40.7 -74.2    18
10 EWR     2013     1     1    10  41    28.0  59.6 Newark Li…  40.7 -74.2    18
# ℹ 26,105 more rows
# ℹ 3 more variables: tz <dbl>, dst <chr>, tzone <chr>
…
str_detect() detects patterns within a string.

spotify |> 
  filter(str_detect(genre,"pop")) |> 
  select(artist,song_name,genre)

# A tibble: 819 × 3
   artist         song_name                         genre                       
   <chr>          <chr>                             <chr>                       
 1 Måneskin       Beggin'                           ['indie rock italiano', 'it…
 2 Olivia Rodrigo good 4 u                          ['pop']                     
 3 Ed Sheeran     Bad Habits                        ['pop', 'uk pop']           
 4 Lil Nas X      INDUSTRY BABY (feat. Jack Harlow) ['lgbtq+ hip hop', 'pop rap…
 5 Lil Nas X      MONTERO (Call Me By Your Name)    ['lgbtq+ hip hop', 'pop rap…
 6 Doja Cat       Kiss Me More (feat. SZA)          ['dance pop', 'pop']        
 7 Rauw Alejandro Todo De Ti                        ['puerto rican pop', 'trap …
 8 Måneskin       I WANNA BE YOUR SLAVE             ['indie rock italiano', 'it…
 9 Dua Lipa       Levitating (feat. DaBaby)         ['dance pop', 'pop', 'uk po…
10 BTS            Permission to Dance               ['k-pop', 'k-pop boy group']
# ℹ 809 more rows

Use str_extract() to extract patterns rather than just detect.

spotify |> 
  mutate(genre_simple = str_extract(genre,"pop")) |> 
  select(artist,song_name,genre,genre_simple)

# A tibble: 1,556 × 4
   artist         song_name                         genre           genre_simple
   <chr>          <chr>                             <chr>           <chr>       
 1 Måneskin       Beggin'                           ['indie rock i… pop         
 2 The Kid LAROI  STAY (with Justin Bieber)         ['australian h… <NA>        
 3 Olivia Rodrigo good 4 u                          ['pop']         pop         
 4 Ed Sheeran     Bad Habits                        ['pop', 'uk po… pop         
 5 Lil Nas X      INDUSTRY BABY (feat. Jack Harlow) ['lgbtq+ hip h… pop         
 6 Lil Nas X      MONTERO (Call Me By Your Name)    ['lgbtq+ hip h… pop         
 7 Doja Cat       Kiss Me More (feat. SZA)          ['dance pop', … pop         
 8 Rauw Alejandro Todo De Ti                        ['puerto rican… pop         
 9 Bad Bunny      Yonaguni                          ['latin', 'reg… <NA>        
10 Måneskin       I WANNA BE YOUR SLAVE             ['indie rock i… pop         
# ℹ 1,546 more rows

Splitting up information into different rows

spotify |> 
  select(artist,song_name,genre) |> 
  separate_longer_delim(genre, delim=",")

# A tibble: 4,665 × 3
   artist         song_name                         genre                   
   <chr>          <chr>                             <chr>                   
 1 Måneskin       Beggin'                           "['indie rock italiano'"
 2 Måneskin       Beggin'                           " 'italian pop']"       
 3 The Kid LAROI  STAY (with Justin Bieber)         "['australian hip hop']"
 4 Olivia Rodrigo good 4 u                          "['pop']"               
 5 Ed Sheeran     Bad Habits                        "['pop'"                
 6 Ed Sheeran     Bad Habits                        " 'uk pop']"            
 7 Lil Nas X      INDUSTRY BABY (feat. Jack Harlow) "['lgbtq+ hip hop'"     
 8 Lil Nas X      INDUSTRY BABY (feat. Jack Harlow) " 'pop rap']"           
 9 Lil Nas X      MONTERO (Call Me By Your Name)    "['lgbtq+ hip hop'"     
10 Lil Nas X      MONTERO (Call Me By Your Name)    " 'pop rap']"           
# ℹ 4,655 more rows
…
