Introduction to Data Science - Week 5
…
Rows: 180 Columns: 20
── Column specification ────────────────────────────────────────────────────────
Delimiter: ","
chr (15): indicator, country, country_code, edulit_ind, flag_codes, flags, n...
dbl  (5): year, student_ratio, x, y, student_ratio_region

ℹ Use `spec()` to retrieve the full column specification for this data.
ℹ Specify the column types or set `show_col_types = FALSE` to quiet this message.

Inspect the data

st_ratios

# A tibble: 180 × 20
   indicator      country country_code edulit_ind  year student_ratio flag_codes
   <chr>          <chr>   <chr>        <chr>      <dbl>         <dbl> <chr>     
 1 Primary Educa… Afghan… AFG          PTRHC_1     2017          44.0 <NA>      
 2 Primary Educa… Albania ALB          PTRHC_1     2017          17.9 <NA>      
 3 Primary Educa… Algeria DZA          PTRHC_1     2017          24.2 <NA>      
 4 Primary Educa… Angola  AGO          PTRHC_1     2015          50.0 <NA>      
 5 Primary Educa… Antigu… ATG          PTRHC_1     2017          12.1 <NA>      
 6 Primary Educa… Argent… ARG          <NA>          NA          NA   <NA>      
 7 Primary Educa… Armenia ARM          <NA>          NA          NA   <NA>      
 8 Primary Educa… Austria AUT          PTRHC_1     2017          10.0 <NA>      
 9 Primary Educa… Azerba… AZE          PTRHC_1     2017          15.5 <NA>      
10 Primary Educa… Bahamas BHS          PTRHC_1     2016          19.0 <NA>      
# ℹ 170 more rows
# ℹ 13 more variables: flags <chr>, name <chr>, alpha.2 <chr>, alpha.3 <chr>,
#   country.code <chr>, iso_3166.2 <chr>, region <chr>, sub.region <chr>,
#   region.code <chr>, sub.region.code <chr>, x <dbl>, y <dbl>,
#   student_ratio_region <dbl>
…
Select the columns of interest

st_ratios_sel <- st_ratios |> 
  select(country, region, student_ratio)

st_ratios_sel

# A tibble: 180 × 3
   country             region        student_ratio
   <chr>               <chr>                 <dbl>
 1 Afghanistan         Asia                   44.0
 2 Albania             Europe                 17.9
 3 Algeria             Africa                 24.2
 4 Angola              Africa                 50.0
 5 Antigua and Barbuda North America          12.1
 6 Argentina           South America          NA  
 7 Armenia             Asia                   NA  
 8 Austria             Europe                 10.0
 9 Azerbaijan          Asia                   15.5
10 Bahamas             North America          19.0
# ℹ 170 more rows
…
2. Focus on the region that you identified in 1.

Create a new dataframe just for this region.

st_ratios_africa <- st_ratios_sel |> 
  filter(region == "Africa")

st_ratios_africa

# A tibble: 50 × 3
   country                  region student_ratio
   <chr>                    <chr>          <dbl>
 1 Algeria                  Africa          24.2
 2 Angola                   Africa          50.0
 3 Benin                    Africa          43.6
 4 Botswana                 Africa          22.6
 5 Burkina Faso             Africa          40.7
 6 Burundi                  Africa          49.6
 7 Cabo Verde               Africa          21.1
 8 Cameroon                 Africa          44.6
 9 Central African Republic Africa          83.4
10 Chad                     Africa          56.9
# ℹ 40 more rows

Which country has the lowest ST-ratio in this region and which has the highest? What are these?

Perhaps the simplest way to approach this is to use arrange() to sort the data in ascending and descending order.

st_ratios_africa |> 
  arrange(student_ratio)

# A tibble: 50 × 3
   country           region student_ratio
   <chr>             <chr>          <dbl>
 1 Seychelles        Africa          14.0
 2 Tunisia           Africa          16.2
 3 Mauritius         Africa          17.9
 4 Comoros           Africa          18.9
 5 Cabo Verde        Africa          21.1
 6 Botswana          Africa          22.6
 7 Equatorial Guinea Africa          23.2
 8 Egypt             Africa          23.8
 9 Algeria           Africa          24.2
10 Liberia           Africa          27.1
# ℹ 40 more rows

st_ratios_africa |> 
  arrange(-student_ratio)

# A tibble: 50 × 3
   country                     region student_ratio
   <chr>                       <chr>          <dbl>
 1 Central African Republic    Africa          83.4
 2 Malawi                      Africa          69.5
 3 Rwanda                      Africa          57.9
 4 Chad                        Africa          56.9
 5 Mozambique                  Africa          52.4
 6 Angola                      Africa          50.0
 7 Burundi                     Africa          49.6
 8 United Republic of Tanzania Africa          47.2
 9 Guinea                      Africa          47.1
10 South Sudan                 Africa          46.8
# ℹ 40 more rows
…
Here, you might first compute the mean using summarise and then use the resulting value to filter the data frame.

st_ratios_africa |> 
  summarise(median_ratio = median(student_ratio, na.rm = TRUE))

# A tibble: 1 × 1
  median_ratio
         <dbl>
1         36.4

st_ratios_africa |> 
  filter(student_ratio > 36.4)

# A tibble: 23 × 3
   country                  region student_ratio
   <chr>                    <chr>          <dbl>
 1 Angola                   Africa          50.0
 2 Benin                    Africa          43.6
 3 Burkina Faso             Africa          40.7
 4 Burundi                  Africa          49.6
 5 Cameroon                 Africa          44.6
 6 Central African Republic Africa          83.4
 7 Chad                     Africa          56.9
 8 Congo                    Africa          44.4
 9 Côte d'Ivoire            Africa          42.4
10 Eritrea                  Africa          39.2
# ℹ 13 more rows

Alternatively, you could again use pull() to extract the value from the data frame and save as a new object, which is then used to provide the value for the filter operation. This has the advantage of making the code more robust to changes, if there is an update to the underlying dataset (e.g. ten countries are added, thus changing the median value), the code will still yield accurate results.

median_st_africa <- st_ratios_africa |> 
  summarise(median_ratio = median(student_ratio, na.rm = TRUE)) |> 
  pull(median_ratio)

st_ratios_africa |> 
  filter(student_ratio > median_st_africa)

# A tibble: 23 × 3
   country                  region student_ratio
   <chr>                    <chr>          <dbl>
 1 Angola                   Africa          50.0
 2 Benin                    Africa          43.6
 3 Burkina Faso             Africa          40.7
 4 Burundi                  Africa          49.6
 5 Cameroon                 Africa          44.6
 6 Central African Republic Africa          83.4
 7 Chad                     Africa          56.9
 8 Congo                    Africa          44.4
 9 Côte d'Ivoire            Africa          42.4
10 Eritrea                  Africa          39.2
# ℹ 13 more rows
…
