Introduction to Data Science - Data exploration basics
…
Load packages

We start by loading the packages that we will need using the library() command.

library(tidyverse)
library(palmerpenguins)

Inspect data

The easiest way to inspect a data set is to simply type its name.

penguins

# A tibble: 344 × 8
   species island    bill_length_mm bill_depth_mm flipper_length_mm body_mass_g
   <fct>   <fct>              <dbl>         <dbl>             <int>       <int>
 1 Adelie  Torgersen           39.1          18.7               181        3750
 2 Adelie  Torgersen           39.5          17.4               186        3800
 3 Adelie  Torgersen           40.3          18                 195        3250
 4 Adelie  Torgersen           NA            NA                  NA          NA
 5 Adelie  Torgersen           36.7          19.3               193        3450
 6 Adelie  Torgersen           39.3          20.6               190        3650
 7 Adelie  Torgersen           38.9          17.8               181        3625
 8 Adelie  Torgersen           39.2          19.6               195        4675
 9 Adelie  Torgersen           34.1          18.1               193        3475
10 Adelie  Torgersen           42            20.2               190        4250
# ℹ 334 more rows
# ℹ 2 more variables: sex <fct>, year <int>

Basic data exploration

Filtering observations

Use filter() to only keep certain observations according to a criterion that you specify. For example, we might want to focus on Gentoo penguins.

penguins |>
  filter(species == "Gentoo")

# A tibble: 124 × 8
   species island bill_length_mm bill_depth_mm flipper_length_mm body_mass_g
   <fct>   <fct>           <dbl>         <dbl>             <int>       <int>
 1 Gentoo  Biscoe           46.1          13.2               211        4500
 2 Gentoo  Biscoe           50            16.3               230        5700
 3 Gentoo  Biscoe           48.7          14.1               210        4450
 4 Gentoo  Biscoe           50            15.2               218        5700
 5 Gentoo  Biscoe           47.6          14.5               215        5400
 6 Gentoo  Biscoe           46.5          13.5               210        4550
 7 Gentoo  Biscoe           45.4          14.6               211        4800
 8 Gentoo  Biscoe           46.7          15.3               219        5200
 9 Gentoo  Biscoe           43.3          13.4               209        4400
10 Gentoo  Biscoe           46.8          15.4               215        5150
# ℹ 114 more rows
# ℹ 2 more variables: sex <fct>, year <int>

penguins |>
  filter(sex == "female")

# A tibble: 165 × 8
   species island    bill_length_mm bill_depth_mm flipper_length_mm body_mass_g
   <fct>   <fct>              <dbl>         <dbl>             <int>       <int>
 1 Adelie  Torgersen           39.5          17.4               186        3800
 2 Adelie  Torgersen           40.3          18                 195        3250
 3 Adelie  Torgersen           36.7          19.3               193        3450
 4 Adelie  Torgersen           38.9          17.8               181        3625
 5 Adelie  Torgersen           41.1          17.6               182        3200
 6 Adelie  Torgersen           36.6          17.8               185        3700
 7 Adelie  Torgersen           38.7          19                 195        3450
 8 Adelie  Torgersen           34.4          18.4               184        3325
 9 Adelie  Biscoe              37.8          18.3               174        3400
10 Adelie  Biscoe              35.9          19.2               189        3800
# ℹ 155 more rows
# ℹ 2 more variables: sex <fct>, year <int>

penguins |> 
  filter(body_mass_g > 4000)

# A tibble: 172 × 8
   species island    bill_length_mm bill_depth_mm flipper_length_mm body_mass_g
   <fct>   <fct>              <dbl>         <dbl>             <int>       <int>
 1 Adelie  Torgersen           39.2          19.6               195        4675
 2 Adelie  Torgersen           42            20.2               190        4250
 3 Adelie  Torgersen           34.6          21.1               198        4400
 4 Adelie  Torgersen           42.5          20.7               197        4500
 5 Adelie  Torgersen           46            21.5               194        4200
 6 Adelie  Dream               39.2          21.1               196        4150
 7 Adelie  Dream               39.8          19.1               184        4650
 8 Adelie  Dream               44.1          19.7               196        4400
 9 Adelie  Dream               39.6          18.8               190        4600
10 Adelie  Dream               42.3          21.2               191        4150
# ℹ 162 more rows
# ℹ 2 more variables: sex <fct>, year <int>

Sorting observations

To sort by a particular column (e.g. body_mass_g), use arrange(). To sort in descending order add a minus sign (N.B. this works for numeric columns only; for other column types, use desc()).

penguins |> 
  arrange(body_mass_g)

# A tibble: 344 × 8
   species   island   bill_length_mm bill_depth_mm flipper_length_mm body_mass_g
   <fct>     <fct>             <dbl>         <dbl>             <int>       <int>
 1 Chinstrap Dream              46.9          16.6               192        2700
 2 Adelie    Biscoe             36.5          16.6               181        2850
 3 Adelie    Biscoe             36.4          17.1               184        2850
 4 Adelie    Biscoe             34.5          18.1               187        2900
 5 Adelie    Dream              33.1          16.1               178        2900
 6 Adelie    Torgers…           38.6          17                 188        2900
 7 Chinstrap Dream              43.2          16.6               187        2900
 8 Adelie    Biscoe             37.9          18.6               193        2925
 9 Adelie    Dream              37.5          18.9               179        2975
10 Adelie    Dream              37            16.9               185        3000
# ℹ 334 more rows
# ℹ 2 more variables: sex <fct>, year <int>

penguins |> 
  arrange(-body_mass_g)

# A tibble: 344 × 8
   species island bill_length_mm bill_depth_mm flipper_length_mm body_mass_g
   <fct>   <fct>           <dbl>         <dbl>             <int>       <int>
 1 Gentoo  Biscoe           49.2          15.2               221        6300
 2 Gentoo  Biscoe           59.6          17                 230        6050
 3 Gentoo  Biscoe           51.1          16.3               220        6000
 4 Gentoo  Biscoe           48.8          16.2               222        6000
 5 Gentoo  Biscoe           45.2          16.4               223        5950
 6 Gentoo  Biscoe           49.8          15.9               229        5950
 7 Gentoo  Biscoe           48.4          14.6               213        5850
 8 Gentoo  Biscoe           49.3          15.7               217        5850
 9 Gentoo  Biscoe           55.1          16                 230        5850
10 Gentoo  Biscoe           49.5          16.2               229        5800
# ℹ 334 more rows
# ℹ 2 more variables: sex <fct>, year <int>

Combining operations

Use the pipe (|>) to combine operations, e.g. to filter for female penguins and sort by descending flipper length:

# this is a comment
penguins |> 
  filter(sex == "female") |> 
  arrange(-flipper_length_mm)

# A tibble: 165 × 8
   species island bill_length_mm bill_depth_mm flipper_length_mm body_mass_g
   <fct>   <fct>           <dbl>         <dbl>             <int>       <int>
 1 Gentoo  Biscoe           46.9          14.6               222        4875
 2 Gentoo  Biscoe           49.1          14.8               220        5150
 3 Gentoo  Biscoe           43.5          14.2               220        4700
 4 Gentoo  Biscoe           45.8          14.2               219        4700
 5 Gentoo  Biscoe           48.5          15                 219        4850
 6 Gentoo  Biscoe           43.4          14.4               218        4600
 7 Gentoo  Biscoe           47.5          15                 218        4950
 8 Gentoo  Biscoe           43.6          13.9               217        4900
 9 Gentoo  Biscoe           46.5          14.4               217        4900
10 Gentoo  Biscoe           46.5          14.8               217        5200
# ℹ 155 more rows
# ℹ 2 more variables: sex <fct>, year <int>

penguins |> 
  filter(species == "Chinstrap") |> 
  arrange(-body_mass_g)

# A tibble: 68 × 8
   species   island bill_length_mm bill_depth_mm flipper_length_mm body_mass_g
   <fct>     <fct>           <dbl>         <dbl>             <int>       <int>
 1 Chinstrap Dream            52            20.7               210        4800
 2 Chinstrap Dream            52.8          20                 205        4550
 3 Chinstrap Dream            53.5          19.9               205        4500
 4 Chinstrap Dream            50.8          18.5               201        4450
 5 Chinstrap Dream            49.2          18.2               195        4400
 6 Chinstrap Dream            54.2          20.8               201        4300
 7 Chinstrap Dream            49            19.6               212        4300
 8 Chinstrap Dream            46            18.9               195        4150
 9 Chinstrap Dream            52            19                 197        4150
10 Chinstrap Dream            51            18.8               203        4100
# ℹ 58 more rows
# ℹ 2 more variables: sex <fct>, year <int>
…
